===========================================
BMUniTriggersButtonEdit

Credits
===========================================

Authors
* Salvatore Marullo (rullmaro). email: rullmaro@gmail.com

Contributors
* Maikel del Valle Bresler (bresler). email: mvbressler2008@gmail.com